%!PS-Adobe-3.0
%%Creator: gEDA gschem 1.8.1-20121123-13-g875406c
%%CreationDate: Mon Nov 17 21:43:42 2014
%%Title: /home/jjmcd/Projects/Amateur_Radio/Schematics/GroupThermometer/ThermometerBreadboard.sch
%%Author: jjmcd
%%BoundingBox: 0 0 612 792
%%Orientation: Landscape
%%Pages: 1
%%EndComments
%%BeginProlog
% Prolog for gEDA, define all the functions needed for rendering
% schematics on Postscript devices


% Draw a line from the second coordinate to the first
% x2 y2 x1 y1 width line -
/line {
    setlinewidth
    % pop off first element and moveto
    moveto
    % pop off remaining elements and draw a line segment
    lineto
    % draw it
    stroke
} bind def


% Draw a dot
% x y r dot -
/dot {
    0 360 arc fill
} bind def

% Draw a dot-dashed line, a bunch of lined segments,
% if the array element only has length two, draw a dot.
% [ [x2 y2 x1 y1] [x4 y4 x3 y3] [x5 y5] ... ] width dashed -
/width 0 def
/dashed {
    dup 2.0 div /width exch def
    setlinewidth
    % pop off each line segment and draw it as a dot or as a line
    {
	aload length 2 gt
	{ moveto lineto stroke}
	{ width dot } ifelse
    } forall
} bind def

% Draw an arc segment
% x y r ang1 ang2 width darc -
/darc {
    setlinewidth
    arc stroke
} bind def

% Draw a series of arc segment bits, if the array element only has a single
% element in it, draw a dot.
% [ [sa1 ea1] [sa2 ea2] ... ] x y r width dashedarc -
/x 0 def
/y 0 def
/dashedarc {
    dup /width exch def
    setlinewidth
    /r exch def  
    /y exch def
    /x exch def
    { aload length 1 gt
	{
	    % this element had two angles in it
	    % extract start and stop angles
	    x y r   % drop x y and r onto stack
		    % at this point we have: sa ea x y r
		    % we need                      x y r sa ea
		    % so..
	    5 -2 roll
	    % and add it to the current path, and draw it
	    arc stroke
	} {
	    % this element only had one angle in it, place a
	    % filled dot at the appropriate place
	    % compute center point of the arc using the angle
	    % that is on the top of the stack
	    dup   		% angle angle
	    cos r mul x add 	% angle x
	    exch		% x angle
	    sin r mul y add	% x y
	    width		% x y width/2
	    dot			% draw the dot
	} ifelse
    } forall

    % Now draw it
    stroke
} bind def

% Draw a box
% width height x y linethickness box -
/box {
    setlinewidth
    moveto
    exch dup 0 rlineto	 % w h, h w w 0      -- Draw bottom line
    exch 0 exch rlineto	 % h w, w h 0, w 0 h -- Draw right line 
    neg 0 rlineto	 % w, -w 0           -- Draw Top line
    closepath		 % finish and draw it
    stroke
} bind def			     

% Draw a filled box
% width height x y fbox -
/fbox {
    moveto
    exch dup 0 rlineto	
    exch 0 exch rlineto	
    neg 0 rlineto		
    closepath			
    fill			
} bind def

% Font reincoding utilities

% ISOLatin1Encoding, extended with remaining uncoded glyphs
/ISOLatin1Extended [
    /.notdef /Lslash /lslash /OE /oe /Scaron /scaron /Zcaron /zcaron
    /Ydieresis /trademark /bullet /dagger /daggerdbl /ellipsis /emdash
    /endash /fi /fl /florin /fraction /guilsinglleft /guilsinglright
    /perthousand /quotedblbase /quotedblleft /quotedblright
    /quotesinglbase /quotesingle /.notdef /.notdef /.notdef /space
    /exclam /quotedbl /numbersign /dollar /percent /ampersand
    /quoteright /parenleft /parenright /asterisk /plus /comma /minus
    /period /slash /zero /one /two /three /four /five /six /seven /eight
    /nine /colon /semicolon /less /equal /greater /question /at /A /B /C
    /D /E /F /G /H /I /J /K /L /M /N /O /P /Q /R /S /T /U /V /W /X /Y /Z
    /bracketleft /backslash /bracketright /asciicircum /underscore
    /quoteleft /a /b /c /d /e /f /g /h /i /j /k /l /m /n /o /p /q /r /s
    /t /u /v /w /x /y /z /braceleft /bar /braceright /asciitilde
    /.notdef /.notdef /.notdef /.notdef /.notdef /.notdef /.notdef
    /.notdef /.notdef /.notdef /.notdef /.notdef /.notdef /.notdef
    /.notdef /.notdef /.notdef /dotlessi /grave /acute /circumflex
    /tilde /macron /breve /dotaccent /dieresis /.notdef /ring /cedilla
    /.notdef /hungarumlaut /ogonek /caron /space /exclamdown /cent
    /sterling /currency /yen /brokenbar /section /dieresis /copyright
    /ordfeminine /guillemotleft /logicalnot /hyphen /registered /macron
    /degree /plusminus /twosuperior /threesuperior /acute /mu /paragraph
    /periodcentered /cedilla /onesuperior /ordmasculine /guillemotright
    /onequarter /onehalf /threequarters /questiondown /Agrave /Aacute
    /Acircumflex /Atilde /Adieresis /Aring /AE /Ccedilla /Egrave /Eacute
    /Ecircumflex /Edieresis /Igrave /Iacute /Icircumflex /Idieresis /Eth
    /Ntilde /Ograve /Oacute /Ocircumflex /Otilde /Odieresis /multiply
    /Oslash /Ugrave /Uacute /Ucircumflex /Udieresis /Yacute /Thorn
    /germandbls /agrave /aacute /acircumflex /atilde /adieresis /aring
    /ae /ccedilla /egrave /eacute /ecircumflex /edieresis /igrave
    /iacute /icircumflex /idieresis /eth /ntilde /ograve /oacute
    /ocircumflex /otilde /odieresis /divide /oslash /ugrave /uacute
    /ucircumflex /udieresis /yacute /thorn /ydieresis
] def

% `new-font-name' `encoding-vector' `old-font-name' RE -
/RE {
    findfont
    dup maxlength dict begin {
        1 index /FID ne { def } { pop pop } ifelse
    } forall
    /Encoding exch def
    dup /FontName exch def
    currentdict end definefont pop
} bind def

% Text handling functions, select the font and scale it, then we need
% only to apply the appropriate transformations to get the text
% justified into the right spots.  The bad thing here is that we don't
% do any kerning, so the output may look a bit strange.

% compute the height of one character and return lly and ury
% (char) charheight lly ury
/charheight {
    gsave			% push graphics state
	newpath			% clear current path
	0 0 moveto		% Set current point
	false charpath		% get path
	flattenpath		% flatten path
	pathbbox		% stack = llx lly urx ury
	exch pop		% stack = llx lly ury
	3 -1 roll pop		% stack = lly ury
    grestore			% pop graphics state
} bind def

% compute the height of a string, one character at a time
% (string) stringheight lly ury
/lly 0.0 def
/ury 0.0 def

/stringheight {
    /lly 0.0 def			% initial value of heightmin
    /ury 0.0 def			% initial value of heightmax
    {				% work through string
	( ) dup 0 4 -1 roll put	% create one character string
	charheight		% measure it's height
	dup ury gt {		% if ury gt heightmax
	    /ury exch def	% update with new value
	} {
	    pop			% else discard ury
	} ifelse
	dup lly lt {		% if lly lt heightmin
	    /lly exch def	% update with new value
	} {
	    pop			% else discard lly
	} ifelse
    } forall
    lly ury			% Return the results
} bind def

% calculate the string width taking into account the escapes.
/mystrx 0.0 def
/mystry 0.0 def
/mystresc false def

/mystringwidth {
    /mystrx 0.0 def
    /mystry 0.0 def
    /mystresc false def
    {				% work through string
	% did we process the escape character last?
	mystresc {
	    % last character was escape
	    % handle the escape
	    % is it an _ = 95?
	    dup 95 eq {
		pop  % we don't need the character anymore
		% toggle drawing overbars
		0.0 0.0 % make it like it never happened...
	    } {
		% otherwise measure the character 
		(\\ ) dup 1 4 -1 roll put % count a \ and the character
		stringwidth
	    } ifelse
	    % and reset the flag
	    /mystresc false def
	} {
	    % last character was not escape
	    % is this escape
	    dup 92 eq {
		% yes, escape character, set flag
		/mystresc true def
		pop % drop character
		0.0 0.0 % make like this character has no width and height
	    } {
		( ) dup 0 4 -1 roll put	% create one character string
		stringwidth		% measure it's height/width
	    } ifelse
	} ifelse
	% accumulate x and y movements
	mystry add /mystry exch def
	mystrx add /mystrx exch def
    } forall
    mystrx mystry % drop results on stack
} bind def

% Render a string with overbars
%
/escaped false def
/drawoverbar false def
/fontsize 0.0 def

%string1 string2 append -
/append {
    2 copy length exch length add % find new length
    string dup % string1 string2 string string
    4 2 roll % string string string1 string2
    2 index 0 3 index
    % string string string1 string2 string 0 string1
    putinterval % string string string1 string2
    exch length exch putinterval
} bind def

% If drawoverbar is set, draw a line of the same length as the given string
% string overbarshowline -
/overbarshowline {
    % print overbar if necessary
    stringwidth pop 0
    drawoverbar {
        rlineto
        gsave stroke grestore
    } {
        rmoveto
    } ifelse
} bind def

% Draws overbars for the given string, then shows the string itself
% string overbarshow
/overbarshow {
    /overbarshowacc () def
    /overbarshowtxt () def

    gsave
    fontsize 10.0 div setlinewidth
    0 fontsize rmoveto  % move to (0,overbarheight)

    {				% work through string
	escaped {
	    % the last character was the escape
	    % handle the escape
	    % is it an _ = 95?
	    dup 95 eq {
		pop  % we don't need the character anymore
                overbarshowacc overbarshowline
                % toggle drawing overbars
		/drawoverbar drawoverbar not def

                % Append the contents off the accumulator to the text
                % string we're eventually going to show
                /overbarshowtxt overbarshowtxt overbarshowacc append def

                % clear accumulator
                /overbarshowacc () def
	    } {
                % add to accumulator
                (\\ ) dup 1 4 -1 roll put
                overbarshowacc exch append
                /overbarshowacc exch def
	    } ifelse
	    % and reset the flag
	    /escaped false def
	} {
	    % check for escape character \ = 92
	    dup 92 eq {
		% yes, escape character, set flag
		/escaped true def
		pop % drop character
	    } {
                % add to accumulator
                ( ) dup 0 4 -1 roll put
                overbarshowacc exch append
                /overbarshowacc exch def
	    } ifelse
	} ifelse
    } forall
    % Catch any leftovers
    overbarshowacc overbarshowline
    overbarshowtxt overbarshowacc append

    grestore
    show
} bind def

% 
% hcenter rjustify vcenter vjustify spacing [(line1) (line2) ... ] rot x y size text -
/stringw 0.0 def
/stringh 0.0 def
/spacing 0.0 def
/strings [ ] def
/stringtxt ( ) def
/stringcount 0 def
/rot 0.0 def

/text {
    gsave	        % save state for later
    /drawoverbar false def      % start by not drawing overbars

    dup /fontsize exch def  % save font size for corrections later
    % do font selection 
    /gEDAFont findfont
    exch scalefont
    setfont

    % set up coordinates
    translate           % move origin to given point
    rotate		% rotate so that text is drawn
    0 0 moveto
    dup length /stringcount exch def			% Get number of strings
    /strings exch def     				% save strings
    /spacing exch def
    % do we have more than 1 string to render?
    stringcount 1 eq {
	/stringtxt strings aload pop def		% get the string 
	/stringw stringtxt mystringwidth pop neg def	% get the -width
	/stringh stringtxt stringheight exch pop neg def% get the -height

	% First do vertical calculations
	% hcenter rjustify vcenter vjustify 
	% vertical justification
	{ 0 stringh rmoveto } if 
	% vertical center
	{ 0 stringh 0.3571425 mul rmoveto } if  % not 0.5, so that
						% it looks nicer
	% Then do horizontal calculations
	% right justify
	{ stringw 0 rmoveto } if
	% center
	{ stringw 2.0 div 0 rmoveto } if
	% Draw the text
	stringtxt overbarshow
    } {
	% More than one line, compute bounding box for the text

	% vertical height, don't use the actual hieght of the characters
	% assume that the user wants to make the baselines line up with two
	% text boxes placed side by side
	/stringh stringcount spacing mul neg def
	% Now figure out horizontal size, this amounts to keeping track
	% of the longest string
	/stringw 0.0 def
	strings {
	    mystringwidth pop
	    dup stringw gt {
		/stringw exch def
	    } {
		pop
	    } ifelse
	} forall
	/stringw stringw neg def 	% get the -width
	
	% First do vertical calculations
	% hcenter rjustify vcenter vjustify 
	% vertical justification
	{ 0 stringh fontsize add rmoveto } if 
	% vertical center
	{ 0 stringh 0.5 mul rmoveto } if 
	% Then do horizontal calculations
	% right justify
	{ stringw 0 rmoveto } if
	% center
	{ stringw 2.0 div 0 rmoveto } if
	% now move up to the first line and begin rendering
	0 stringcount 1 sub spacing mul rmoveto
	strings {
	    gsave		% Save starting point
	    overbarshow		% render the text
	    grestore
	    0 spacing neg rmoveto
	} forall
    } ifelse
    grestore 	% Restore old state
} bind def


%%EndProlog
%%Page: 1 1
/gEDAFont ISOLatin1Extended /Helvetica RE
2 setlinecap
0.072000 0.072000 scale
8441 0 translate 90 rotate
1.002735 1.002735 scale
-3308 -78124 translate
gsave
5500 82300 7600 82300 10 line
7600 82300 7600 85300 10 line
7600 85300 5500 85300 10 line
5500 85300 5500 82300 10 line
5400 85000 5200 85000 10 line
gsave
false true false false 161.777776 [(1) ] 0 5400 85050 144.444443 text
grestore
gsave
false false false false 161.777776 [(MCLR) ] 0 5550 85000 144.444443 text
grestore
5500 84700 5200 84700 10 line
gsave
false true false false 161.777776 [(2) ] 0 5400 84750 144.444443 text
grestore
gsave
false false false false 161.777776 [(RB0/AN0) ] 0 5550 84700 144.444443 text
grestore
5500 84400 5200 84400 10 line
gsave
false true false false 161.777776 [(3) ] 0 5400 84450 144.444443 text
grestore
gsave
false false false false 161.777776 [(RB1/AN1) ] 0 5550 84400 144.444443 text
grestore
5450 85000 50 0 360 10 darc
5500 84100 5200 84100 10 line
gsave
false true false false 161.777776 [(4) ] 0 5400 84150 144.444443 text
grestore
gsave
false false false false 161.777776 [(RB2/AN2) ] 0 5550 84100 144.444443 text
grestore
5500 83800 5200 83800 10 line
gsave
false true false false 161.777776 [(5) ] 0 5400 83850 144.444443 text
grestore
gsave
false false false false 161.777776 [(RB3/AN3) ] 0 5550 83800 144.444443 text
grestore
5500 83500 5200 83500 10 line
gsave
false true false false 161.777776 [(6) ] 0 5400 83550 144.444443 text
grestore
gsave
false false false false 161.777776 [(OSC1/CLKI) ] 0 5550 83500 144.444443 text
grestore
5500 83200 5200 83200 10 line
gsave
false true false false 161.777776 [(7) ] 0 5400 83250 144.444443 text
grestore
gsave
false false false false 161.777776 [(OSC2/CLKO/RC15) ] 0 5550 83200 144.444443 text
grestore
5500 82900 5200 82900 10 line
gsave
false true false false 161.777776 [(8) ] 0 5400 82950 144.444443 text
grestore
gsave
false false false false 161.777776 [(RC13/U1TX) ] 0 5550 82900 144.444443 text
grestore
5500 82600 5200 82600 10 line
gsave
false true false false 161.777776 [(9) ] 0 5400 82650 144.444443 text
grestore
gsave
false false false false 161.777776 [(RC14/U1RX) ] 0 5550 82600 144.444443 text
grestore
7600 85000 7900 85000 10 line
gsave
false false false false 161.777776 [(18) ] 0 7700 85050 144.444443 text
grestore
gsave
false true false false 161.777776 [(AVdd) ] 0 7550 85000 144.444443 text
grestore
7600 84700 7900 84700 10 line
gsave
false false false false 161.777776 [(17) ] 0 7700 84750 144.444443 text
grestore
gsave
false true false false 161.777776 [(AVss) ] 0 7550 84700 144.444443 text
grestore
7600 84475 7525 84400 10 line
7600 84325 7525 84400 10 line
7600 84400 7900 84400 10 line
gsave
false false false false 161.777776 [(16) ] 0 7700 84450 144.444443 text
grestore
gsave
false true false false 161.777776 [(RB6/AN6/SCK) ] 0 7525 84400 144.444443 text
grestore
7600 84100 7900 84100 10 line
gsave
false false false false 161.777776 [(15) ] 0 7700 84150 144.444443 text
grestore
gsave
false true false false 161.777776 [(RB7/AN7) ] 0 7550 84100 144.444443 text
grestore
7600 83800 7900 83800 10 line
gsave
false false false false 161.777776 [(14) ] 0 7700 83850 144.444443 text
grestore
gsave
false true false false 161.777776 [(Vdd) ] 0 7550 83800 144.444443 text
grestore
7600 83500 7900 83500 10 line
gsave
false false false false 161.777776 [(13) ] 0 7700 83550 144.444443 text
grestore
gsave
false true false false 161.777776 [(Vss) ] 0 7550 83500 144.444443 text
grestore
7600 83200 7900 83200 10 line
gsave
false false false false 161.777776 [(12) ] 0 7700 83250 144.444443 text
grestore
gsave
false true false false 161.777776 [(RB5/PGC) ] 0 7550 83200 144.444443 text
grestore
7600 82900 7900 82900 10 line
gsave
false false false false 161.777776 [(11) ] 0 7700 82950 144.444443 text
grestore
gsave
false true false false 161.777776 [(RB4/PGD) ] 0 7550 82900 144.444443 text
grestore
7600 82600 7900 82600 10 line
gsave
false false false false 161.777776 [(10) ] 0 7700 82650 144.444443 text
grestore
gsave
false true false false 161.777776 [(RD0/OC1) ] 0 7550 82600 144.444443 text
grestore
5550 85125 5950 85125 10 line
gsave
false false false false 202.222224 [(dsPIC30F2011) ] 0 5500 85350 180.555557 text
grestore
60 60 5170 83470 fbox
60 60 5170 83170 fbox
60 60 7870 84970 fbox
60 60 7870 84670 fbox
grestore
gsave
5550 80900 5700 80900 10 line
5300 80900 5401 80952 10 line
5301 80899 5402 80847 10 line
5300 80800 5100 80900 10 line
5100 80900 5300 81000 10 line
5300 81000 5100 81100 10 line
5100 81100 5300 81200 10 line
5300 80800 5100 80700 10 line
5100 80700 5200 80650 10 line
5200 80500 5200 80650 10 line
5200 81400 5200 81248 10 line
5300 81199 5200 81250 10 line
5300 80900 5550 80900 10 line
grestore
gsave
false false false false 202.222224 [(50K) ] 0 4800 81100 180.555557 text
grestore
gsave
9200 85700 9100 85500 10 line
9100 85500 9000 85700 10 line
9000 85700 8900 85500 10 line
8900 85500 8800 85700 10 line
9200 85700 9300 85500 10 line
9300 85500 9350 85600 10 line
9500 85600 9350 85600 10 line
8600 85600 8752 85600 10 line
8801 85700 8750 85600 10 line
newpath
8600 85600
25
0 360 arc
fill
newpath
8600 85600
25
0 360 arc
fill
grestore
gsave
false false false false 202.222224 [(47K) ] 0 9200 85700 180.555557 text
grestore
gsave
5800 81800 5700 81600 10 line
5700 81600 5600 81800 10 line
5600 81800 5500 81600 10 line
5500 81600 5400 81800 10 line
5800 81800 5900 81600 10 line
5900 81600 5950 81700 10 line
6100 81700 5950 81700 10 line
5200 81700 5352 81700 10 line
5401 81800 5350 81700 10 line
grestore
gsave
false false false false 202.222224 [(412) ] 0 5500 81900 180.555557 text
grestore
gsave
5200 81700 5200 81900 10 line
gsave
false true false false 161.777776 [(1) ] 90 5150 81850 144.444443 text
grestore
5200 82600 5200 82400 10 line
gsave
false false false false 161.777776 [(2) ] 90 5150 82450 144.444443 text
grestore
5100 82100 5200 82200 10 line
5200 82200 5300 82100 10 line
5100 82100 5300 82100 10 line
5100 82200 5300 82200 10 line
5200 82200 5200 82400 10 line
5200 82100 5200 81900 10 line
5200 82150 200 0 360 10 darc
4897 82216 4796 82317 10 line
4796 82317 4845 82321 10 line
4845 82321 4743 82422 10 line
4982 82184 4882 82285 10 line
4882 82285 4931 82289 10 line
4931 82289 4830 82390 10 line
grestore
gsave
false true false true 202.222224 [(LED) ] 0 5000 82700 180.555557 text
grestore
gsave
10200 85300 10400 85300 10 line
gsave
false false false false 161.777776 [(1) ] 0 10550 85300 144.444443 text
grestore
10450 85300 50 0 360 10 darc
10200 84900 10400 84900 10 line
gsave
false false false false 161.777776 [(2) ] 0 10550 84900 144.444443 text
grestore
10450 84900 50 0 360 10 darc
10200 84500 10400 84500 10 line
gsave
false false false false 161.777776 [(3) ] 0 10550 84500 144.444443 text
grestore
10450 84500 50 0 360 10 darc
10200 84100 10400 84100 10 line
gsave
false false false false 161.777776 [(4) ] 0 10550 84100 144.444443 text
grestore
10450 84100 50 0 360 10 darc
10200 83700 10400 83700 10 line
gsave
false false false false 161.777776 [(5) ] 0 10550 83700 144.444443 text
grestore
10450 83700 50 0 360 10 darc
10200 83300 10400 83300 10 line
gsave
false false false false 161.777776 [(6) ] 0 10550 83300 144.444443 text
grestore
10450 83300 50 0 360 10 darc
10500 82900 10900 82900 10 line
10900 82900 10900 85700 10 line
10900 85700 10500 85700 10 line
10500 85700 10500 82900 10 line
60 60 10170 84470 fbox
grestore
gsave
8650 78550 14100 78550 10 line
14100 78550 14100 81650 10 line
14100 81650 8650 81650 10 line
8650 81650 8650 78550 10 line
9550 79750 13700 79750 10 line
13700 79750 13700 80250 10 line
13700 80250 9550 80250 10 line
9550 80250 9550 79750 10 line
9650 79800 9850 79800 10 line
9850 79800 9850 80200 10 line
9850 80200 9650 80200 10 line
9650 80200 9650 79800 10 line
9900 79800 10100 79800 10 line
10100 79800 10100 80200 10 line
10100 80200 9900 80200 10 line
9900 80200 9900 79800 10 line
10150 79800 10350 79800 10 line
10350 79800 10350 80200 10 line
10350 80200 10150 80200 10 line
10150 80200 10150 79800 10 line
10900 79800 11100 79800 10 line
11100 79800 11100 80200 10 line
11100 80200 10900 80200 10 line
10900 80200 10900 79800 10 line
10400 79800 10600 79800 10 line
10600 79800 10600 80200 10 line
10600 80200 10400 80200 10 line
10400 80200 10400 79800 10 line
10650 79800 10850 79800 10 line
10850 79800 10850 80200 10 line
10850 80200 10650 80200 10 line
10650 80200 10650 79800 10 line
11650 79800 11850 79800 10 line
11850 79800 11850 80200 10 line
11850 80200 11650 80200 10 line
11650 80200 11650 79800 10 line
11150 79800 11350 79800 10 line
11350 79800 11350 80200 10 line
11350 80200 11150 80200 10 line
11150 80200 11150 79800 10 line
11400 79800 11600 79800 10 line
11600 79800 11600 80200 10 line
11600 80200 11400 80200 10 line
11400 80200 11400 79800 10 line
12400 79800 12600 79800 10 line
12600 79800 12600 80200 10 line
12600 80200 12400 80200 10 line
12400 80200 12400 79800 10 line
11900 79800 12100 79800 10 line
12100 79800 12100 80200 10 line
12100 80200 11900 80200 10 line
11900 80200 11900 79800 10 line
12150 79800 12350 79800 10 line
12350 79800 12350 80200 10 line
12350 80200 12150 80200 10 line
12150 80200 12150 79800 10 line
12650 79800 12850 79800 10 line
12850 79800 12850 80200 10 line
12850 80200 12650 80200 10 line
12650 80200 12650 79800 10 line
13400 79800 13600 79800 10 line
13600 79800 13600 80200 10 line
13600 80200 13400 80200 10 line
13400 80200 13400 79800 10 line
12900 79800 13100 79800 10 line
13100 79800 13100 80200 10 line
13100 80200 12900 80200 10 line
12900 80200 12900 79800 10 line
13150 79800 13350 79800 10 line
13350 79800 13350 80200 10 line
13350 80200 13150 80200 10 line
13150 80200 13150 79800 10 line
9550 79000 13700 79000 10 line
13700 79000 13700 79500 10 line
13700 79500 9550 79500 10 line
9550 79500 9550 79000 10 line
9650 79050 9850 79050 10 line
9850 79050 9850 79450 10 line
9850 79450 9650 79450 10 line
9650 79450 9650 79050 10 line
9900 79050 10100 79050 10 line
10100 79050 10100 79450 10 line
10100 79450 9900 79450 10 line
9900 79450 9900 79050 10 line
10150 79050 10350 79050 10 line
10350 79050 10350 79450 10 line
10350 79450 10150 79450 10 line
10150 79450 10150 79050 10 line
10900 79050 11100 79050 10 line
11100 79050 11100 79450 10 line
11100 79450 10900 79450 10 line
10900 79450 10900 79050 10 line
10400 79050 10600 79050 10 line
10600 79050 10600 79450 10 line
10600 79450 10400 79450 10 line
10400 79450 10400 79050 10 line
10650 79050 10850 79050 10 line
10850 79050 10850 79450 10 line
10850 79450 10650 79450 10 line
10650 79450 10650 79050 10 line
11650 79050 11850 79050 10 line
11850 79050 11850 79450 10 line
11850 79450 11650 79450 10 line
11650 79450 11650 79050 10 line
11150 79050 11350 79050 10 line
11350 79050 11350 79450 10 line
11350 79450 11150 79450 10 line
11150 79450 11150 79050 10 line
11400 79050 11600 79050 10 line
11600 79050 11600 79450 10 line
11600 79450 11400 79450 10 line
11400 79450 11400 79050 10 line
12400 79050 12600 79050 10 line
12600 79050 12600 79450 10 line
12600 79450 12400 79450 10 line
12400 79450 12400 79050 10 line
11900 79050 12100 79050 10 line
12100 79050 12100 79450 10 line
12100 79450 11900 79450 10 line
11900 79450 11900 79050 10 line
12150 79050 12350 79050 10 line
12350 79050 12350 79450 10 line
12350 79450 12150 79450 10 line
12150 79450 12150 79050 10 line
12650 79050 12850 79050 10 line
12850 79050 12850 79450 10 line
12850 79450 12650 79450 10 line
12650 79450 12650 79050 10 line
13400 79050 13600 79050 10 line
13600 79050 13600 79450 10 line
13600 79450 13400 79450 10 line
13400 79450 13400 79050 10 line
12900 79050 13100 79050 10 line
13100 79050 13100 79450 10 line
13100 79450 12900 79450 10 line
12900 79450 12900 79050 10 line
13150 79050 13350 79050 10 line
13350 79050 13350 79450 10 line
13350 79450 13150 79450 10 line
13150 79450 13150 79050 10 line
8950 80350 9150 80350 10 line
9450 78800 13800 78800 10 line
13800 78800 13800 80450 10 line
13800 80450 9450 80450 10 line
9450 80450 9450 78800 10 line
gsave
7250 81150 6950 81150 10 line
gsave
false true false false 161.777776 [(2) ] 0 8400 81100 144.444443 text
grestore
7250 80550 6950 80550 10 line
gsave
false true false false 161.777776 [(4) ] 0 8400 80500 144.444443 text
grestore
7250 79950 6950 79950 10 line
gsave
false true false false 161.777776 [(6) ] 0 8400 79900 144.444443 text
grestore
7250 79350 6950 79350 10 line
gsave
false true false false 161.777776 [(8) ] 0 8400 79300 144.444443 text
grestore
7250 81450 6950 81450 10 line
gsave
false true false false 161.777776 [(1) ] 0 8400 81400 144.444443 text
grestore
7250 80850 6950 80850 10 line
gsave
false true false false 161.777776 [(3) ] 0 8400 80800 144.444443 text
grestore
7250 80250 6950 80250 10 line
gsave
false true false false 161.777776 [(5) ] 0 8400 80200 144.444443 text
grestore
7250 79650 6950 79650 10 line
gsave
false true false false 161.777776 [(7) ] 0 8400 79600 144.444443 text
grestore
7250 78750 6950 78750 10 line
gsave
false true false false 161.777776 [(10) ] 0 8400 78700 144.444443 text
grestore
7250 79050 6950 79050 10 line
gsave
false true false false 161.777776 [(9) ] 0 8400 79000 144.444443 text
grestore
7250 81450 8150 81450 10 line
7250 81150 8150 81150 10 line
7250 80850 8150 80850 10 line
7250 80550 8150 80550 10 line
7250 80250 8150 80250 10 line
7250 79950 8150 79950 10 line
7250 79650 8150 79650 10 line
7250 79350 8150 79350 10 line
7250 79050 8150 79050 10 line
7250 78750 8150 78750 10 line
8150 78550 8650 78550 10 line
8650 78550 8650 81650 10 line
8650 81650 8150 81650 10 line
8150 81650 8150 78550 10 line
grestore
gsave
false true false false 202.222224 [(LCD) ] 0 8600 81800 180.555557 text
grestore
gsave
false false false false 364.000000 [(LCD) ] 0 11350 81350 325.000000 text
grestore
gsave
false false false false 202.222224 [(DB4) ] 0 8750 78700 180.555557 text
grestore
gsave
false false false false 202.222224 [(DB5) ] 0 8750 79000 180.555557 text
grestore
gsave
false false false false 202.222224 [(DB6) ] 0 8750 79300 180.555557 text
grestore
gsave
false false false false 202.222224 [(DB7) ] 0 8750 79600 180.555557 text
grestore
gsave
false false false false 202.222224 [(R/W) ] 0 8750 80200 180.555557 text
grestore
gsave
false false false false 202.222224 [(E) ] 0 8750 79900 180.555557 text
grestore
gsave
false false false false 202.222224 [(RS) ] 0 8750 80500 180.555557 text
grestore
gsave
false false false false 202.222224 [(VDD) ] 0 8750 81400 180.555557 text
grestore
gsave
false false false false 202.222224 [(VSS) ] 0 8750 81100 180.555557 text
grestore
gsave
false false false false 202.222224 [(Vo) ] 0 8750 80800 180.555557 text
grestore
gsave
false false false false 283.111104 [(2 Line x 16 Character) ] 0 10350 81000 252.777771 text
grestore
gsave
false false false false 202.222224 [(4 data lines) ] 0 11000 80700 180.555557 text
grestore
grestore
7900 83800 8700 83800 10 line
8700 83800 8700 85300 10 line
8700 85300 10200 85300 10 line
10200 84900 8600 84900 10 line
8600 82100 8600 85900 10 line
8600 85900 4900 85900 10 line
4900 85900 4900 85000 10 line
4900 85000 5200 85000 10 line
10200 84100 8800 84100 10 line
8800 83200 8800 84100 10 line
8800 83200 7900 83200 10 line
10200 83700 8900 83700 10 line
8900 82900 8900 83700 10 line
8900 82900 7900 82900 10 line
10200 83300 8700 83300 10 line
8700 83300 8700 83500 10 line
8700 83500 7900 83500 10 line
6450 81450 6450 82100 10 line
6450 82100 8600 82100 10 line
6300 80500 6300 82200 10 line
6300 82200 8500 82200 10 line
8500 82200 8500 83500 10 line
6100 81700 6300 81700 10 line
5200 80500 6300 80500 10 line
7900 84400 8400 84400 10 line
8400 84400 8400 82000 10 line
8400 82000 6600 82000 10 line
6600 80550 6600 82000 10 line
7900 84100 8300 84100 10 line
8300 84100 8300 81900 10 line
8300 81900 6700 81900 10 line
6700 80250 6700 81900 10 line
6800 79950 6800 81800 10 line
6800 81800 8200 81800 10 line
8200 81800 8200 82600 10 line
8200 82600 7900 82600 10 line
5200 84700 4000 84700 10 line
4000 79650 4000 84700 10 line
5200 84400 3900 84400 10 line
3900 79350 3900 84400 10 line
5200 84100 3800 84100 10 line
3800 79050 3800 84100 10 line
5200 83800 3700 83800 10 line
3700 78750 3700 83800 10 line
6950 81450 5200 81450 10 line
5200 81450 5200 81400 10 line
6950 81150 6300 81150 10 line
5700 80900 6950 80900 10 line
6950 80900 6950 80850 10 line
6950 80550 6600 80550 10 line
6950 80250 6700 80250 10 line
6950 79950 6800 79950 10 line
6950 79650 4000 79650 10 line
6950 79350 3900 79350 10 line
6950 79050 3800 79050 10 line
6950 78750 3700 78750 10 line
9500 85600 9500 85300 10 line
gsave
false false false false 202.222224 [(Vdd) ] 0 10100 85400 180.555557 text
grestore
gsave
false false false false 202.222224 [(Vpp) ] 0 10100 84600 180.555557 text
grestore
gsave
false false false false 202.222224 [(PGC) ] 0 10000 84200 180.555557 text
grestore
gsave
false false false false 202.222224 [(PGD) ] 0 10000 83800 180.555557 text
grestore
gsave
false false false false 202.222224 [(Vss) ] 0 10000 83400 180.555557 text
grestore
gsave
false false false false 202.222224 [(MCLR) ] 0 9900 85000 180.555557 text
grestore
gsave
11300 82900 12800 82900 10 line
12800 82900 12800 84000 10 line
12800 84000 11300 84000 10 line
11300 84000 11300 82900 10 line
12000 84300 12000 84000 10 line
gsave
false false false false 161.777776 [(3) ] 0 12050 84100 144.444443 text
grestore
gsave
true false false true 161.777776 [(Vcc) ] 0 12000 83950 144.444443 text
grestore
12800 83500 13100 83500 10 line
gsave
false false false false 161.777776 [(2) ] 0 12900 83550 144.444443 text
grestore
gsave
false true false false 161.777776 [(DQ) ] 0 12750 83500 144.444443 text
grestore
12000 82600 12000 82900 10 line
gsave
false false false false 161.777776 [(1) ] 0 12050 82700 144.444443 text
grestore
gsave
true false false false 161.777776 [(GND) ] 0 12000 82950 144.444443 text
grestore
gsave
false false false false 202.222224 [(DS1821) ] 0 11450 83375 180.555557 text
grestore
grestore
12000 84300 12000 85900 10 line
12000 85900 10000 85900 10 line
10000 85900 10000 85300 10 line
12000 82600 9800 82600 10 line
9800 82600 9800 83300 10 line
13100 83500 13100 86000 10 line
13100 86000 3600 86000 10 line
3600 82900 3600 86000 10 line
3600 82900 5200 82900 10 line
gsave
11700 160900 11700 161400 10 line
gsave
false false false false 202.222224 [(Vdd) ] 90 11700 161455 180.555557 text
grestore
gsave
false true false false 202.222224 [(1) ] 90 11650 161305 180.555557 text
grestore
12100 160900 12100 161400 10 line
gsave
false false false false 202.222224 [(Vss) ] 90 12100 161455 180.555557 text
grestore
gsave
false true false false 202.222224 [(2) ] 90 12050 161305 180.555557 text
grestore
12500 160900 12500 161400 10 line
gsave
false false false false 202.222224 [(Vo) ] 90 12500 161455 180.555557 text
grestore
gsave
false true false false 202.222224 [(3) ] 90 12450 161305 180.555557 text
grestore
12900 160900 12900 161400 10 line
gsave
false false false false 202.222224 [(RS) ] 90 12900 161455 180.555557 text
grestore
gsave
false true false false 202.222224 [(4) ] 90 12850 161305 180.555557 text
grestore
13300 160900 13300 161400 10 line
gsave
false false false false 202.222224 [(RW) ] 90 13300 161455 180.555557 text
grestore
gsave
false true false false 202.222224 [(5) ] 90 13250 161305 180.555557 text
grestore
14100 160900 14100 161400 10 line
gsave
false false false false 202.222224 [(D0) ] 90 14100 161455 180.555557 text
grestore
gsave
false true false false 202.222224 [(7) ] 90 14050 161305 180.555557 text
grestore
13700 160900 13700 161400 10 line
gsave
false false false false 202.222224 [(E) ] 90 13700 161455 180.555557 text
grestore
gsave
false true false false 202.222224 [(6) ] 90 13650 161305 180.555557 text
grestore
14500 160900 14500 161400 10 line
gsave
false false false false 202.222224 [(D1) ] 90 14500 161455 180.555557 text
grestore
gsave
false true false false 202.222224 [(8) ] 90 14450 161305 180.555557 text
grestore
14900 160900 14900 161400 10 line
gsave
false false false false 202.222224 [(D2) ] 90 14900 161455 180.555557 text
grestore
gsave
false true false false 202.222224 [(9) ] 90 14850 161305 180.555557 text
grestore
15300 160900 15300 161400 10 line
gsave
false false false false 202.222224 [(D3) ] 90 15300 161455 180.555557 text
grestore
gsave
false true false false 202.222224 [(10) ] 90 15250 161305 180.555557 text
grestore
15700 160900 15700 161400 10 line
gsave
false false false false 202.222224 [(D4) ] 90 15700 161455 180.555557 text
grestore
gsave
false true false false 202.222224 [(11) ] 90 15650 161305 180.555557 text
grestore
16100 160900 16100 161400 10 line
gsave
false false false false 202.222224 [(D5) ] 90 16100 161455 180.555557 text
grestore
gsave
false true false false 202.222224 [(12) ] 90 16050 161305 180.555557 text
grestore
16900 160900 16900 161400 10 line
gsave
false false false false 202.222224 [(D7) ] 90 16900 161455 180.555557 text
grestore
gsave
false true false false 202.222224 [(14) ] 90 16850 161305 180.555557 text
grestore
16500 160900 16500 161400 10 line
gsave
false false false false 202.222224 [(D6) ] 90 16500 161455 180.555557 text
grestore
gsave
false true false false 202.222224 [(13) ] 90 16450 161305 180.555557 text
grestore
11400 161400 17100 161400 10 line
17100 161400 17100 162500 10 line
17100 162500 11400 162500 10 line
11400 162500 11400 161400 10 line
gsave
false false false false 161.777776 [(\(no backlight\)) ] 0 13500 161900 144.444443 text
grestore
gsave
false false false false 242.666672 [(LCD Module) ] 0 13400 162100 216.666672 text
grestore
60 60 11670 160870 fbox
60 60 12070 160870 fbox
60 60 12470 160870 fbox
60 60 12870 160870 fbox
60 60 13270 160870 fbox
60 60 14070 160870 fbox
60 60 13670 160870 fbox
60 60 14470 160870 fbox
60 60 14870 160870 fbox
60 60 15270 160870 fbox
60 60 15670 160870 fbox
60 60 16070 160870 fbox
60 60 16870 160870 fbox
60 60 16470 160870 fbox
grestore
60 60 5170 83470 fbox
60 60 5170 83170 fbox
60 60 7870 84970 fbox
60 60 7870 84670 fbox
newpath
8600 85600
25
0 360 arc
fill
newpath
8600 85600
25
0 360 arc
fill
60 60 10170 84470 fbox
newpath
9500 85300
25
0 360 arc
fill
newpath
10000 85300
25
0 360 arc
fill
newpath
8600 84900
25
0 360 arc
fill
newpath
8600 84900
25
0 360 arc
fill
newpath
8600 85600
25
0 360 arc
fill
newpath
8600 84900
25
0 360 arc
fill
newpath
9800 83300
25
0 360 arc
fill
newpath
8500 83500
25
0 360 arc
fill
newpath
6450 81450
25
0 360 arc
fill
newpath
6450 81450
25
0 360 arc
fill
newpath
6300 81700
25
0 360 arc
fill
newpath
6300 81150
25
0 360 arc
fill
newpath
8500 83500
25
0 360 arc
fill
newpath
8500 83500
25
0 360 arc
fill
newpath
6300 81700
25
0 360 arc
fill
newpath
6300 81700
25
0 360 arc
fill
newpath
6450 81450
25
0 360 arc
fill
newpath
6300 81150
25
0 360 arc
fill
newpath
6300 81150
25
0 360 arc
fill
newpath
9500 85300
25
0 360 arc
fill
newpath
9500 85300
25
0 360 arc
fill
newpath
10000 85300
25
0 360 arc
fill
newpath
10000 85300
25
0 360 arc
fill
newpath
9800 83300
25
0 360 arc
fill
newpath
9800 83300
25
0 360 arc
fill
60 60 11670 160870 fbox
60 60 12070 160870 fbox
60 60 12470 160870 fbox
60 60 12870 160870 fbox
60 60 13270 160870 fbox
60 60 14070 160870 fbox
60 60 13670 160870 fbox
60 60 14470 160870 fbox
60 60 14870 160870 fbox
60 60 15270 160870 fbox
60 60 15670 160870 fbox
60 60 16070 160870 fbox
60 60 16870 160870 fbox
60 60 16470 160870 fbox
showpage
%%End
