v 20130925 2
C 41600 50200 1 0 0 led-1.sym
{
T 42400 50800 5 10 0 0 0 0 1
device=LED
T 42400 50600 5 10 0 1 0 0 1
refdes=LED?
T 42400 51000 5 10 0 0 0 0 1
symversion=0.1
}
C 40700 50300 1 0 0 resistor-1.sym
{
T 41000 50700 5 10 0 0 0 0 1
device=RESISTOR
T 40900 50600 5 10 0 1 0 0 1
refdes=R?
}
L 42500 51000 41600 51000 3 0 0 0 -1 -1
L 41600 51200 41600 50800 3 0 0 0 -1 -1
L 40700 51000 41600 51000 3 0 0 0 -1 -1
L 42500 51600 40700 51600 3 0 0 0 -1 -1
L 40700 51000 40800 51100 3 0 0 0 -1 -1
L 40700 51000 40800 50900 3 0 0 0 -1 -1
L 40700 51600 40800 51500 3 0 0 0 -1 -1
L 40700 51600 40800 51700 3 0 0 0 -1 -1
L 41500 50900 41700 51100 3 0 0 0 -1 -1
L 41500 51100 41700 50900 3 0 0 0 -1 -1
L 42500 51000 42400 51100 3 0 0 0 -1 -1
L 42500 51000 42400 50900 3 0 0 0 -1 -1
L 42500 51600 42400 51700 3 0 0 0 -1 -1
L 42500 51600 42400 51500 3 0 0 0 -1 -1
L 40700 50800 40700 52000 3 0 0 0 -1 -1
L 42500 50800 42500 52000 3 0 0 0 -1 -1
T 41400 51700 9 10 1 0 0 0 1
4.5V
T 41900 51100 9 10 1 0 0 0 1
1.8V
T 41000 51100 9 10 1 0 0 0 1
2.7V
